2022F - Computer Architecture/lab2/codes/CPU.vcd
$date
	Tue Jan  3 21:11:58 2023
$end
$version
	Icarus Verilog
$end
$timescale
	1s
$end
$scope module TestBench $end
$var reg 1 ! Clk $end
$var reg 1 " Reset $end
$var integer 32 # counter [31:0] $end
$var integer 32 $ i [31:0] $end
$var integer 32 % outfile [31:0] $end
$scope module CPU $end
$var wire 1 ! clk_i $end
$var wire 1 " rst_i $end
$var wire 1 & zero $end
$var wire 2 ' pc_select [1:0] $end
$var wire 32 ( pc_next [31:0] $end
$var wire 32 ) pc_default [31:0] $end
$var wire 32 * pc [31:0] $end
$var wire 1 + flush_IF_ID $end
$var wire 1 , flush_ID_EX $end
$var wire 32 - WB_WRdata [31:0] $end
$var wire 1 . WB_RegWrite $end
$var wire 5 / WB_Rd [4:0] $end
$var wire 1 0 WB_MemtoReg $end
$var wire 32 1 WB_MEMdata [31:0] $end
$var wire 32 2 WB_ALUresult [31:0] $end
$var wire 1 3 Stall $end
$var wire 1 4 PCWrite $end
$var wire 1 5 NoOp $end
$var wire 1 6 MEM_RegWrite $end
$var wire 5 7 MEM_Rd [4:0] $end
$var wire 32 8 MEM_RS2data [31:0] $end
$var wire 1 9 MEM_MemtoReg $end
$var wire 1 : MEM_MemWrite $end
$var wire 1 ; MEM_MemRead $end
$var wire 32 < MEM_MEMdata [31:0] $end
$var wire 32 = MEM_ALUresult [31:0] $end
$var wire 32 > IF_instr [31:0] $end
$var wire 1 ? ID_predTaken $end
$var wire 32 @ ID_pc_default [31:0] $end
$var wire 32 A ID_pc_branch [31:0] $end
$var wire 32 B ID_pc [31:0] $end
$var wire 32 C ID_instr [31:0] $end
$var wire 1 D ID_RegWrite $end
$var wire 32 E ID_RS2data [31:0] $end
$var wire 32 F ID_RS1data [31:0] $end
$var wire 1 G ID_MemtoReg $end
$var wire 1 H ID_MemWrite $end
$var wire 1 I ID_MemRead $end
$var wire 32 J ID_IMMdata_shift [31:0] $end
$var wire 32 K ID_IMMdata [31:0] $end
$var wire 1 L ID_Branch $end
$var wire 1 M ID_ALUSrc $end
$var wire 2 N ID_ALUOp [1:0] $end
$var wire 2 O ForwardB [1:0] $end
$var wire 2 P ForwardA [1:0] $end
$var wire 1 Q EX_realTaken $end
$var wire 1 R EX_predTaken $end
$var wire 32 S EX_pc_default [31:0] $end
$var wire 32 T EX_pc_branch [31:0] $end
$var wire 10 U EX_funct [9:0] $end
$var wire 32 V EX_forward_RS2data [31:0] $end
$var wire 1 W EX_RegWrite $end
$var wire 5 X EX_Rd [4:0] $end
$var wire 32 Y EX_RS2data [31:0] $end
$var wire 5 Z EX_RS2addr [4:0] $end
$var wire 32 [ EX_RS1data [31:0] $end
$var wire 5 \ EX_RS1addr [4:0] $end
$var wire 1 ] EX_MemtoReg $end
$var wire 1 ^ EX_MemWrite $end
$var wire 1 _ EX_MemRead $end
$var wire 32 ` EX_IMMdata [31:0] $end
$var wire 1 a EX_Branch $end
$var wire 32 b EX_ALUresult [31:0] $end
$var wire 32 c EX_ALUdata2 [31:0] $end
$var wire 32 d EX_ALUdata1 [31:0] $end
$var wire 1 e EX_ALUSrc $end
$var wire 2 f EX_ALUOp [1:0] $end
$var wire 3 g EX_ALUCtrl [2:0] $end
$scope module ALU $end
$var wire 1 & zero_o $end
$var wire 32 h data2_i [31:0] $end
$var wire 32 i data1_i [31:0] $end
$var wire 3 j ALUCtrl_i [2:0] $end
$var reg 32 k data_o [31:0] $end
$upscope $end
$scope module ALUSrc_MUX $end
$var wire 1 e select_i $end
$var wire 32 l data_o [31:0] $end
$var wire 32 m data2_i [31:0] $end
$var wire 32 n data1_i [31:0] $end
$upscope $end
$scope module ALU_Control $end
$var wire 10 o funct_i [9:0] $end
$var wire 2 p ALUOp_i [1:0] $end
$var reg 3 q ALUCtrl_o [2:0] $end
$upscope $end
$scope module Add_Branch_PC $end
$var wire 32 r data_o [31:0] $end
$var wire 32 s data2_i [31:0] $end
$var wire 32 t data1_i [31:0] $end
$upscope $end
$scope module Add_PC $end
$var wire 32 u data2_i [31:0] $end
$var wire 32 v data_o [31:0] $end
$var wire 32 w data1_i [31:0] $end
$upscope $end
$scope module Ander $end
$var wire 1 & data2_i $end
$var wire 1 Q data_o $end
$var wire 1 a data1_i $end
$upscope $end
$scope module Branch_Predictor $end
$var wire 1 Q EX_realTaken_i $end
$var wire 1 ! clk_i $end
$var wire 1 " rst_i $end
$var wire 1 L ID_Branch_i $end
$var wire 1 R EX_predTaken_i $end
$var wire 1 a EX_Branch_i $end
$var reg 1 , Flush_ID_EX_o $end
$var reg 1 + Flush_IF_ID_o $end
$var reg 1 ? ID_predTaken_o $end
$var reg 2 x pc_select_o [1:0] $end
$var reg 2 y state [1:0] $end
$upscope $end
$scope module Control $end
$var wire 7 z Op_i [6:0] $end
$var wire 1 5 NoOp_i $end
$var reg 2 { ALUOp_o [1:0] $end
$var reg 1 M ALUSrc_o $end
$var reg 1 L Branch_o $end
$var reg 1 I MemRead_o $end
$var reg 1 H MemWrite_o $end
$var reg 1 G MemtoReg_o $end
$var reg 1 D RegWrite_o $end
$upscope $end
$scope module Data_Memory $end
$var wire 1 ! clk_i $end
$var wire 32 | data_o [31:0] $end
$var wire 32 } data_i [31:0] $end
$var wire 32 ~ addr_i [31:0] $end
$var wire 1 : MemWrite_i $end
$var wire 1 ; MemRead_i $end
$upscope $end
$scope module EX_MEM $end
$var wire 32 !" ALUresult_i [31:0] $end
$var wire 1 ! clk_i $end
$var wire 1 W RegWrite_i $end
$var wire 5 "" Rd_i [4:0] $end
$var wire 32 #" RS2data_i [31:0] $end
$var wire 1 ] MemtoReg_i $end
$var wire 1 ^ MemWrite_i $end
$var wire 1 _ MemRead_i $end
$var reg 32 $" ALUresult_o [31:0] $end
$var reg 1 ; MemRead_o $end
$var reg 1 : MemWrite_o $end
$var reg 1 9 MemtoReg_o $end
$var reg 32 %" RS2data_o [31:0] $end
$var reg 5 &" Rd_o [4:0] $end
$var reg 1 6 RegWrite_o $end
$upscope $end
$scope module Forwarding_Unit $end
$var wire 5 '" MEM_Rd_i [4:0] $end
$var wire 1 6 MEM_RegWrite_i $end
$var wire 1 . WB_RegWrite_i $end
$var wire 5 (" WB_Rd_i [4:0] $end
$var wire 5 )" EX_RS2_i [4:0] $end
$var wire 5 *" EX_RS1_i [4:0] $end
$var reg 2 +" ForwardA_o [1:0] $end
$var reg 2 ," ForwardB_o [1:0] $end
$upscope $end
$scope module Hazard_Detection $end
$var wire 5 -" ID_RS1_i [4:0] $end
$var wire 5 ." ID_RS2_i [4:0] $end
$var wire 5 /" EX_Rd_i [4:0] $end
$var wire 1 _ EX_MemRead_i $end
$var reg 1 5 NoOp_o $end
$var reg 1 4 PCWrite_o $end
$var reg 1 3 stall_o $end
$upscope $end
$scope module ID_EX $end
$var wire 2 0" ALUOp_i [1:0] $end
$var wire 1 M ALUSrc_i $end
$var wire 1 L Branch_i $end
$var wire 1 I MemRead_i $end
$var wire 1 H MemWrite_i $end
$var wire 1 G MemtoReg_i $end
$var wire 5 1" RS1addr_i [4:0] $end
$var wire 5 2" RS2addr_i [4:0] $end
$var wire 5 3" Rd_i [4:0] $end
$var wire 1 D RegWrite_i $end
$var wire 1 ! clk_i $end
$var wire 1 , flush_i $end
$var wire 10 4" funct_i [9:0] $end
$var wire 32 5" pc_branch_i [31:0] $end
$var wire 1 ? predTaken_i $end
$var wire 32 6" pc_default_i [31:0] $end
$var wire 32 7" RS2data_i [31:0] $end
$var wire 32 8" RS1data_i [31:0] $end
$var wire 32 9" IMMdata_i [31:0] $end
$var reg 2 :" ALUOp_o [1:0] $end
$var reg 1 e ALUSrc_o $end
$var reg 1 a Branch_o $end
$var reg 32 ;" IMMdata_o [31:0] $end
$var reg 1 _ MemRead_o $end
$var reg 1 ^ MemWrite_o $end
$var reg 1 ] MemtoReg_o $end
$var reg 5 <" RS1addr_o [4:0] $end
$var reg 32 =" RS1data_o [31:0] $end
$var reg 5 >" RS2addr_o [4:0] $end
$var reg 32 ?" RS2data_o [31:0] $end
$var reg 5 @" Rd_o [4:0] $end
$var reg 1 W RegWrite_o $end
$var reg 10 A" funct_o [9:0] $end
$var reg 32 B" pc_branch_o [31:0] $end
$var reg 32 C" pc_default_o [31:0] $end
$var reg 1 R predTaken_o $end
$upscope $end
$scope module IF_ID $end
$var wire 1 ! clk_i $end
$var wire 1 + flush_i $end
$var wire 32 D" pc_default_i [31:0] $end
$var wire 1 " rst_i $end
$var wire 1 3 stall_i $end
$var wire 32 E" pc_i [31:0] $end
$var wire 32 F" instr_i [31:0] $end
$var reg 32 G" instr_o [31:0] $end
$var reg 32 H" pc_default_o [31:0] $end
$var reg 32 I" pc_o [31:0] $end
$upscope $end
$scope module Imm_Gen $end
$var wire 32 J" instr_i [31:0] $end
$var reg 32 K" IMMdata_o [31:0] $end
$upscope $end
$scope module Instruction_Memory $end
$var wire 32 L" instr_o [31:0] $end
$var wire 32 M" addr_i [31:0] $end
$upscope $end
$scope module Left_Shifter $end
$var wire 32 N" data_i [31:0] $end
$var wire 32 O" data_o [31:0] $end
$upscope $end
$scope module MEM_WB $end
$var wire 32 P" ALUresult_i [31:0] $end
$var wire 32 Q" MEMdata_i [31:0] $end
$var wire 1 9 MemtoReg_i $end
$var wire 5 R" Rd_i [4:0] $end
$var wire 1 6 RegWrite_i $end
$var wire 1 ! clk_i $end
$var reg 32 S" ALUresult_o [31:0] $end
$var reg 32 T" MEMdata_o [31:0] $end
$var reg 1 0 MemtoReg_o $end
$var reg 5 U" Rd_o [4:0] $end
$var reg 1 . RegWrite_o $end
$upscope $end
$scope module MUX_ALUSrc $end
$var wire 32 V" data1_i [31:0] $end
$var wire 32 W" data2_i [31:0] $end
$var wire 1 0 select_i $end
$var wire 32 X" data_o [31:0] $end
$upscope $end
$scope module PC $end
$var wire 1 4 PCWrite_i $end
$var wire 1 ! clk_i $end
$var wire 1 " rst_i $end
$var wire 32 Y" pc_i [31:0] $end
$var reg 32 Z" pc_o [31:0] $end
$upscope $end
$scope module PC_MUX $end
$var wire 32 [" data1_i [31:0] $end
$var wire 32 \" data2_i [31:0] $end
$var wire 32 ]" data3_i [31:0] $end
$var wire 32 ^" data4_i [31:0] $end
$var wire 2 _" select_i [1:0] $end
$var reg 32 `" data_o [31:0] $end
$upscope $end
$scope module RS1_MUX $end
$var wire 32 a" data1_i [31:0] $end
$var wire 32 b" data2_i [31:0] $end
$var wire 32 c" data3_i [31:0] $end
$var wire 32 d" data4_i [31:0] $end
$var wire 2 e" select_i [1:0] $end
$var reg 32 f" data_o [31:0] $end
$upscope $end
$scope module RS2_MUX $end
$var wire 32 g" data1_i [31:0] $end
$var wire 32 h" data2_i [31:0] $end
$var wire 32 i" data3_i [31:0] $end
$var wire 32 j" data4_i [31:0] $end
$var wire 2 k" select_i [1:0] $end
$var reg 32 l" data_o [31:0] $end
$upscope $end
$scope module Registers $end
$var wire 5 m" RDaddr_i [4:0] $end
$var wire 32 n" RDdata_i [31:0] $end
$var wire 5 o" RS1addr_i [4:0] $end
$var wire 5 p" RS2addr_i [4:0] $end
$var wire 1 . RegWrite_i $end
$var wire 1 ! clk_i $end
$var wire 32 q" RS2data_o [31:0] $end
$var wire 32 r" RS1data_o [31:0] $end
$upscope $end
$upscope $end
$upscope $end
$enddefinitions $end
#0
$dumpvars
bx r"
bx q"
bx p"
bx o"
b0 n"
b0 m"
bx l"
b0 k"
bz j"
bx i"
b0 h"
bx g"
bx f"
b0 e"
bz d"
bx c"
b0 b"
bx a"
bx `"
b0 _"
bx ^"
b0 ]"
bx \"
bx ["
bx Z"
bx Y"
b0 X"
b0 W"
b0 V"
b0 U"
b0 T"
b0 S"
b0 R"
b0 Q"
bx P"
bx0 O"
bx N"
bx M"
bx L"
bx K"
bx J"
bx I"
bx H"
bx G"
bx F"
bx E"
bx D"
b0 C"
bx B"
b0 A"
b0 @"
bx ?"
b0 >"
bx ="
b0 <"
bx ;"
b0 :"
bx 9"
bx 8"
bx 7"
bx 6"
bx 5"
bx 4"
bx 3"
bx 2"
bx 1"
b0 0"
b0 /"
bx ."
bx -"
b0 ,"
b0 +"
b0 *"
b0 )"
b0 ("
b0 '"
b0 &"
bx %"
bx $"
bx #"
b0 ""
bx !"
bx ~
bx }
b0 |
b0 {
bx z
b11 y
b0 x
bx w
bx v
b100 u
bx0 t
bx s
bx r
b10 q
b0 p
b0 o
bx n
bx m
bx l
bx k
b10 j
bx i
bx h
b10 g
b0 f
0e
bx d
bx c
bx b
0a
bx `
0_
0^
0]
b0 \
bx [
b0 Z
bx Y
b0 X
0W
bx V
b0 U
bx T
b0 S
1R
0Q
b0 P
b0 O
b0 N
0M
0L
bx K
bx0 J
0I
0H
0G
bx F
bx E
0D
bx C
bx B
bx A
bx @
1?
bx >
bx =
b0 <
0;
0:
09
bx 8
b0 7
06
05
14
03
b0 2
b0 1
00
b0 /
0.
b0 -
0,
0+
bx *
bx )
bx (
b0 '
x&
b11 %
b100000 $
b0 #
0"
1!
$end
#12
b110000010011 >
b110000010011 F"
b110000010011 L"
b100 (
b100 Y"
b100 `"
b100 )
b100 v
b100 D"
b100 ["
b0 *
b0 w
b0 E"
b0 M"
b0 Z"
1"
#24
0"
#25
0!
#50
b0 A
b0 r
b0 5"
b0 \"
b0 J
b0 t
b0 O"
b0 E
b0 7"
b0 q"
b0 F
b0 8"
b0 r"
1D
1M
b11 N
b11 {
b11 0"
bx -
bx X"
bx b"
bx h"
bx n"
b10000000000110100010011 >
b10000000000110100010011 F"
b10000000000110100010011 L"
b1000 (
b1000 Y"
b1000 `"
b0 K
b0 9"
b0 K"
b0 N"
b11000 3"
b0 2"
b0 1"
b0 4"
b0 p"
b0 o"
b10011 z
b0 ."
b0 -"
bx 2
bx S"
bx V"
bx S
bx C"
bx ]"
bx X
bx ""
bx /"
bx @"
bx Z
bx )"
bx >"
bx \
bx *"
bx <"
bx U
bx o
bx A"
b1000 )
b1000 v
b1000 D"
b1000 ["
b100 *
b100 w
b100 E"
b100 M"
b100 Z"
b100 @
b100 6"
b100 H"
b0 B
b0 s
b0 I"
b110000010011 C
b110000010011 G"
b110000010011 J"
b1 #
1!
#75
0!
#100
1&
b0 b
b0 k
b0 !"
b1000 J
b1000 t
b1000 O"
b0 V
b0 n
b0 #"
b0 l"
b0 d
b0 i
b0 f"
b0 c
b0 h
b0 l
b100 K
b100 9"
b100 K"
b100 N"
b11010 3"
b100 2"
b100 p"
b100 ."
b10000000000111000010011 >
b10000000000111000010011 F"
b10000000000111000010011 L"
b1100 (
b1100 Y"
b1100 `"
b100 S
b100 C"
b100 ]"
b0 T
b0 B"
b0 ^"
b11000 X
b11000 ""
b11000 /"
b11000 @"
b0 Z
b0 )"
b0 >"
b0 \
b0 *"
b0 <"
b0 U
b0 o
b0 A"
b0 `
b0 m
b0 ;"
b0 Y
b0 ?"
b0 g"
b0 [
b0 ="
b0 a"
1e
b11 f
b11 p
b11 :"
1W
bx 7
bx &"
bx '"
bx R"
b1000 @
b1000 6"
b1000 H"
b1100 A
b1100 r
b1100 5"
b1100 \"
b100 B
b100 s
b100 I"
b10000000000110100010011 C
b10000000000110100010011 G"
b10000000000110100010011 J"
b1100 )
b1100 v
b1100 D"
b1100 ["
b1000 *
b1000 w
b1000 E"
b1000 M"
b1000 Z"
b10 #
1!
#125
0!
#150
0&
b100 b
b100 k
b100 !"
b100 c
b100 h
b100 l
b11111111111100000000011110010011 >
b11111111111100000000011110010011 F"
b11111111111100000000011110010011 L"
b10000 (
b10000 Y"
b10000 `"
b11100 3"
bx /
bx ("
bx U"
bx m"
b11000 7
b11000 &"
b11000 '"
b11000 R"
b0 8
b0 }
b0 %"
b0 =
b0 ~
b0 $"
b0 P"
b0 c"
b0 i"
16
b1000 S
b1000 C"
b1000 ]"
b1100 T
b1100 B"
b1100 ^"
b11010 X
b11010 ""
b11010 /"
b11010 @"
b100 Z
b100 )"
b100 >"
b100 `
b100 m
b100 ;"
b10000 )
b10000 v
b10000 D"
b10000 ["
b1100 *
b1100 w
b1100 E"
b1100 M"
b1100 Z"
b1100 @
b1100 6"
b1100 H"
b10000 A
b10000 r
b10000 5"
b10000 \"
b1000 B
b1000 s
b1000 I"
b10000000000111000010011 C
b10000000000111000010011 G"
b10000000000111000010011 J"
b11 #
1!
#175
0!
#200
b11111111111111111111111111111110 J
b11111111111111111111111111111110 t
b11111111111111111111111111111110 O"
b111110 E
b111110 7"
b111110 q"
b0 -
b0 X"
b0 b"
b0 h"
b0 n"
b11111111111111111111111111111111 K
b11111111111111111111111111111111 9"
b11111111111111111111111111111111 K"
b11111111111111111111111111111111 N"
b1111 3"
b11111 2"
b1111111000 4"
b11111 p"
b11111 ."
b11110011010000110010110011 >
b11110011010000110010110011 F"
b11110011010000110010110011 L"
b10100 (
b10100 Y"
b10100 `"
b1100 S
b1100 C"
b1100 ]"
b10000 T
b10000 B"
b10000 ^"
b11100 X
b11100 ""
b11100 /"
b11100 @"
b11010 7
b11010 &"
b11010 '"
b11010 R"
b100 =
b100 ~
b100 $"
b100 P"
b100 c"
b100 i"
b11000 /
b11000 ("
b11000 U"
b11000 m"
b0 2
b0 S"
b0 V"
1.
b10000 @
b10000 6"
b10000 H"
b1010 A
b1010 r
b1010 5"
b1010 \"
b1100 B
b1100 s
b1100 I"
b11111111111100000000011110010011 C
b11111111111100000000011110010011 G"
b11111111111100000000011110010011 J"
b10100 )
b10100 v
b10100 D"
b10100 ["
b10000 *
b10000 w
b10000 E"
b10000 M"
b10000 Z"
b100 #
1!
#225
0!
#250
b11111111111111111111111111111111 b
b11111111111111111111111111111111 k
b11111111111111111111111111111111 !"
b111000 E
b111000 7"
b111000 q"
b100 F
b100 8"
b100 r"
0M
b10 N
b10 {
b10 0"
b100 -
b100 X"
b100 b"
b100 h"
b100 n"
b11111111111111111111111111111111 c
b11111111111111111111111111111111 h
b11111111111111111111111111111111 l
b111110 V
b111110 n
b111110 #"
b111110 l"
b11111111111111010000110100010011 >
b11111111111111010000110100010011 F"
b11111111111111010000110100010011 L"
b11000 (
b11000 Y"
b11000 `"
b11001 3"
b11100 2"
b11010 1"
b1000 4"
b11100 p"
b11010 o"
b110011 z
b11100 ."
b11010 -"
b11010 /
b11010 ("
b11010 U"
b11010 m"
b100 2
b100 S"
b100 V"
b11100 7
b11100 &"
b11100 '"
b11100 R"
b10000 S
b10000 C"
b10000 ]"
b1010 T
b1010 B"
b1010 ^"
b1111 X
b1111 ""
b1111 /"
b1111 @"
b11111 Z
b11111 )"
b11111 >"
b1111111000 U
b1111111000 o
b1111111000 A"
b11111111111111111111111111111111 `
b11111111111111111111111111111111 m
b11111111111111111111111111111111 ;"
b111110 Y
b111110 ?"
b111110 g"
b11000 )
b11000 v
b11000 D"
b11000 ["
b10100 *
b10100 w
b10100 E"
b10100 M"
b10100 Z"
b10100 @
b10100 6"
b10100 H"
b1110 A
b1110 r
b1110 5"
b1110 \"
b10000 B
b10000 s
b10000 I"
b11110011010000110010110011 C
b11110011010000110010110011 G"
b11110011010000110010110011 J"
b101 #
1!
#275
0!
#300
b10000 b
b10000 k
b10000 !"
b11 g
b11 j
b11 q
b111110 E
b111110 7"
b111110 q"
1M
b11 N
b11 {
b11 0"
b100 c
b100 h
b100 l
b100 d
b100 i
b100 f"
b100 V
b100 n
b100 #"
b100 l"
b1 O
b1 ,"
b1 k"
b11010 3"
b11111 2"
b1111111000 4"
b11111 p"
b10011 z
b11111 ."
b11001010110110000011 >
b11001010110110000011 F"
b11001010110110000011 L"
b11100 (
b11100 Y"
b11100 `"
b10100 S
b10100 C"
b10100 ]"
b1110 T
b1110 B"
b1110 ^"
b11001 X
b11001 ""
b11001 /"
b11001 @"
b11100 Z
b11100 )"
b11100 >"
b11010 \
b11010 *"
b11010 <"
b1000 U
b1000 o
b1000 A"
b111000 Y
b111000 ?"
b111000 g"
b100 [
b100 ="
b100 a"
0e
b10 f
b10 p
b10 :"
b1111 7
b1111 &"
b1111 '"
b1111 R"
b111110 8
b111110 }
b111110 %"
b11111111111111111111111111111111 =
b11111111111111111111111111111111 ~
b11111111111111111111111111111111 $"
b11111111111111111111111111111111 P"
b11111111111111111111111111111111 c"
b11111111111111111111111111111111 i"
b11100 /
b11100 ("
b11100 U"
b11100 m"
b11000 @
b11000 6"
b11000 H"
b10010 A
b10010 r
b10010 5"
b10010 \"
b10100 B
b10100 s
b10100 I"
b11111111111111010000110100010011 C
b11111111111111010000110100010011 G"
b11111111111111010000110100010011 J"
b11100 )
b11100 v
b11100 D"
b11100 ["
b11000 *
b11000 w
b11000 E"
b11000 M"
b11000 Z"
b110 #
1!
#325
0!
#350
b11 b
b11 k
b11 !"
b10 g
b10 j
b10 q
b111110 V
b111110 n
b111110 #"
b111110 l"
b0 J
b0 t
b0 O"
b0 E
b0 7"
b0 q"
b11111111111111111111111111100111 F
b11111111111111111111111111100111 8"
b11111111111111111111111111100111 r"
1I
1G
b0 N
b0 {
b0 0"
b11111111111111111111111111111111 -
b11111111111111111111111111111111 X"
b11111111111111111111111111111111 b"
b11111111111111111111111111111111 h"
b11111111111111111111111111111111 n"
b0 O
b0 ,"
b0 k"
b11111111111111111111111111111111 c
b11111111111111111111111111111111 h
b11111111111111111111111111111111 l
b1101111000000110000110011 >
b1101111000000110000110011 F"
b1101111000000110000110011 L"
b100000 (
b100000 Y"
b100000 `"
b0 K
b0 9"
b0 K"
b0 N"
b11011 3"
b0 2"
b11001 1"
b10 4"
b0 p"
b11001 o"
b11 z
b0 ."
b11001 -"
b1111 /
b1111 ("
b1111 U"
b1111 m"
b11111111111111111111111111111111 2
b11111111111111111111111111111111 S"
b11111111111111111111111111111111 V"
b11001 7
b11001 &"
b11001 '"
b11001 R"
b100 8
b100 }
b100 %"
b10000 =
b10000 ~
b10000 $"
b10000 P"
b10000 c"
b10000 i"
b11000 S
b11000 C"
b11000 ]"
b10010 T
b10010 B"
b10010 ^"
b11010 X
b11010 ""
b11010 /"
b11010 @"
b11111 Z
b11111 )"
b11111 >"
b1111111000 U
b1111111000 o
b1111111000 A"
b111110 Y
b111110 ?"
b111110 g"
1e
b11 f
b11 p
b11 :"
b100000 )
b100000 v
b100000 D"
b100000 ["
b11100 *
b11100 w
b11100 E"
b11100 M"
b11100 Z"
b11100 @
b11100 6"
b11100 H"
b11000 A
b11000 r
b11000 5"
b11000 \"
b11000 B
b11000 s
b11000 I"
b11001010110110000011 C
b11001010110110000011 G"
b11001010110110000011 J"
b111 #
1!
#375
0!
#400
b10000 b
b10000 k
b10000 !"
b11111111111111111111111111100101 E
b11111111111111111111111111100101 7"
b11111111111111111111111111100101 q"
b0 F
b0 8"
b0 r"
0I
0G
0D
0M
b0 c
b0 h
b0 l
15
04
13
b10000 d
b10000 i
b10000 f"
b0 V
b0 n
b0 #"
b0 l"
b1 P
b1 +"
b1 e"
b10000 -
b10000 X"
b10000 b"
b10000 h"
b10000 n"
b11000 3"
b11011 2"
b11000 1"
b0 4"
b11011 p"
b11000 o"
b110011 z
b11011 ."
b11000 -"
b111111010000010001100011 >
b111111010000010001100011 F"
b111111010000010001100011 L"
b100100 (
b100100 Y"
b100100 `"
b11100 S
b11100 C"
b11100 ]"
b11000 T
b11000 B"
b11000 ^"
b11011 X
b11011 ""
b11011 /"
b11011 @"
b0 Z
b0 )"
b0 >"
b11001 \
b11001 *"
b11001 <"
b10 U
b10 o
b10 A"
b0 `
b0 m
b0 ;"
b0 Y
b0 ?"
b0 g"
b11111111111111111111111111100111 [
b11111111111111111111111111100111 ="
b11111111111111111111111111100111 a"
b0 f
b0 p
b0 :"
1_
1]
b11010 7
b11010 &"
b11010 '"
b11010 R"
b111110 8
b111110 }
b111110 %"
b11 =
b11 ~
b11 $"
b11 P"
b11 c"
b11 i"
b11001 /
b11001 ("
b11001 U"
b11001 m"
b10000 2
b10000 S"
b10000 V"
b100000 @
b100000 6"
b100000 H"
b11100 A
b11100 r
b11100 5"
b11100 \"
b11100 B
b11100 s
b11100 I"
b1101111000000110000110011 C
b1101111000000110000110011 G"
b1101111000000110000110011 J"
b100100 )
b100100 v
b100100 D"
b100100 ["
b100000 *
b100000 w
b100000 E"
b100000 M"
b100000 Z"
b1000 #
1!
#425
0!
#450
b10000 b
b10000 k
b10000 !"
b0 d
b0 i
b0 f"
b10000 c
b10000 h
b10000 l
1D
b10 N
b10 {
b10 0"
b11 -
b11 X"
b11 b"
b11 h"
b11 n"
b11101 <
b11101 |
b11101 Q"
b10 O
b10 ,"
b10 k"
b0 P
b0 +"
b0 e"
b10000 V
b10000 n
b10000 #"
b10000 l"
05
14
03
b11010 /
b11010 ("
b11010 U"
b11010 m"
b11 2
b11 S"
b11 V"
b11011 7
b11011 &"
b11011 '"
b11011 R"
b0 8
b0 }
b0 %"
b10000 =
b10000 ~
b10000 $"
b10000 P"
b10000 c"
b10000 i"
1;
19
b100000 S
b100000 C"
b100000 ]"
b11100 T
b11100 B"
b11100 ^"
b11000 X
b11000 ""
b11000 /"
b11000 @"
b11011 Z
b11011 )"
b11011 >"
b11000 \
b11000 *"
b11000 <"
b0 U
b0 o
b0 A"
b11111111111111111111111111100101 Y
b11111111111111111111111111100101 ?"
b11111111111111111111111111100101 g"
b0 [
b0 ="
b0 a"
0e
0_
0]
0W
b1001 #
1!
#475
0!
#500
b11101 b
b11101 k
b11101 !"
1+
b1 '
b1 x
b1 _"
b11101 c
b11101 h
b11101 l
b11101 V
b11101 n
b11101 #"
b11101 l"
b1000 J
b1000 t
b1000 O"
b11111111111111111111111111111111 E
b11111111111111111111111111111111 7"
b11111111111111111111111111111111 q"
b11 F
b11 8"
b11 r"
1L
0D
b1 N
b1 {
b1 0"
b0 <
b0 |
b0 Q"
b1 O
b1 ,"
b1 k"
b11101 -
b11101 X"
b11101 b"
b11101 h"
b11101 n"
b100 K
b100 9"
b100 K"
b100 N"
b1000 3"
b1111 2"
b11010 1"
b1111 p"
b11010 o"
b1100011 z
b1111 ."
b11010 -"
b11111110000000000000011011100011 >
b11111110000000000000011011100011 F"
b11111110000000000000011011100011 L"
b101000 (
b101000 Y"
b101000 `"
b10 f
b10 p
b10 :"
1W
b11000 7
b11000 &"
b11000 '"
b11000 R"
b10000 8
b10000 }
b10000 %"
0;
09
06
b11011 /
b11011 ("
b11011 U"
b11011 m"
b11101 1
b11101 T"
b11101 W"
b10000 2
b10000 S"
b10000 V"
10
b100100 @
b100100 6"
b100100 H"
b101000 A
b101000 r
b101000 5"
b101000 \"
b100000 B
b100000 s
b100000 I"
b111111010000010001100011 C
b111111010000010001100011 G"
b111111010000010001100011 J"
b101000 )
b101000 v
b101000 D"
b101000 ["
b100100 *
b100100 w
b100100 E"
b100100 M"
b100100 Z"
b1010 #
1!
#525
0!
#550
b100 b
b100 k
b100 !"
1,
b10 '
b10 x
b10 _"
1+
b110 g
b110 j
b110 q
b11111111111111111111111111111111 c
b11111111111111111111111111111111 h
b11111111111111111111111111111111 l
b11111111111111111111111111111111 V
b11111111111111111111111111111111 n
b11111111111111111111111111111111 #"
b11111111111111111111111111111111 l"
b0 E
b0 7"
b0 q"
b0 F
b0 8"
b0 r"
0L
b0 N
b0 {
b0 0"
b10000 -
b10000 X"
b10000 b"
b10000 h"
b10000 n"
b0 O
b0 ,"
b0 k"
b11 d
b11 i
b11 f"
b1100000000010111000100011 >
b1100000000010111000100011 F"
b1100000000010111000100011 L"
b100100 (
b100100 Y"
b100100 `"
b0 3"
b0 2"
b0 1"
b0 p"
b0 o"
b0 z
b0 ."
b0 -"
b11000 /
b11000 ("
b11000 U"
b11000 m"
b0 1
b0 T"
b0 W"
00
0.
b11101 8
b11101 }
b11101 %"
b11101 =
b11101 ~
b11101 $"
b11101 P"
b11101 c"
b11101 i"
16
b100100 S
b100100 C"
b100100 ]"
b101000 T
b101000 B"
b101000 ^"
1a
b1000 X
b1000 ""
b1000 /"
b1000 @"
b1111 Z
b1111 )"
b1111 >"
b11010 \
b11010 *"
b11010 <"
b100 `
b100 m
b100 ;"
b11111111111111111111111111111111 Y
b11111111111111111111111111111111 ?"
b11111111111111111111111111111111 g"
b11 [
b11 ="
b11 a"
b1 f
b1 p
b1 :"
0W
b101100 )
b101100 v
b101100 D"
b101100 ["
b101000 *
b101000 w
b101000 E"
b101000 M"
b101000 Z"
b0 @
b0 6"
b0 H"
b1000 A
b1000 r
b1000 5"
b1000 \"
b0 B
b0 s
b0 I"
b0 C
b0 G"
b0 J"
b1011 #
1!
#575
0!
#600
1&
b0 b
b0 k
b0 !"
b0 '
b0 x
b0 _"
0,
0+
b10 g
b10 j
b10 q
b0 c
b0 h
b0 l
b0 d
b0 i
b0 f"
b0 V
b0 n
b0 #"
b0 l"
b11101 -
b11101 X"
b11101 b"
b11101 h"
b11101 n"
b11111110000000000000011011100011 >
b11111110000000000000011011100011 F"
b11111110000000000000011011100011 L"
b101000 (
b101000 Y"
b101000 `"
b10 y
b0 S
b0 C"
b0 ]"
b0 T
b0 B"
b0 ^"
0R
0a
b0 X
b0 ""
b0 /"
b0 @"
b0 Z
b0 )"
b0 >"
b0 \
b0 *"
b0 <"
b0 `
b0 m
b0 ;"
b0 Y
b0 ?"
b0 g"
b0 [
b0 ="
b0 a"
b0 f
b0 p
b0 :"
b1000 7
b1000 &"
b1000 '"
b1000 R"
b11111111111111111111111111111111 8
b11111111111111111111111111111111 }
b11111111111111111111111111111111 %"
b100 =
b100 ~
b100 $"
b100 P"
b100 c"
b100 i"
06
b11101 2
b11101 S"
b11101 V"
1.
b101000 )
b101000 v
b101000 D"
b101000 ["
b100100 *
b100100 w
b100100 E"
b100100 M"
b100100 Z"
b1100 #
1!
#625
0!
