2022F - Computer Architecture/hw3/codes/CPU.vcd
$date
	Wed Nov 30 15:22:19 2022
$end
$version
	Icarus Verilog
$end
$timescale
	1s
$end
$scope module TestBench $end
$var reg 1 ! Clk $end
$var reg 1 " Reset $end
$var reg 1 # Start $end
$var integer 32 $ counter [31:0] $end
$var integer 32 % i [31:0] $end
$var integer 32 & outfile [31:0] $end
$scope module CPU $end
$var wire 1 ' RegWrite $end
$var wire 1 ! clk_i $end
$var wire 1 " rst_i $end
$var wire 1 # start_i $end
$var wire 1 ( zero $end
$var wire 32 ) pc_next [31:0] $end
$var wire 32 * pc [31:0] $end
$var wire 32 + instr [31:0] $end
$var wire 32 , RS2data [31:0] $end
$var wire 32 - RS1data [31:0] $end
$var wire 32 . IMMdata [31:0] $end
$var wire 32 / ALUrst [31:0] $end
$var wire 32 0 ALUdata2_i [31:0] $end
$var wire 1 1 ALUSrc $end
$var wire 2 2 ALUOp [1:0] $end
$var wire 3 3 ALUCtrl [2:0] $end
$scope module ALU $end
$var wire 1 ( Zero_o $end
$var wire 32 4 data2_i [31:0] $end
$var wire 32 5 data1_i [31:0] $end
$var wire 1 6 Zero $end
$var wire 3 7 ALUCtrl_i [2:0] $end
$var reg 32 8 data_o [31:0] $end
$upscope $end
$scope module ALU_Control $end
$var wire 10 9 funct_i [9:0] $end
$var wire 2 : ALUOp_i [1:0] $end
$var reg 3 ; ALUCtrl_o [2:0] $end
$upscope $end
$scope module Add_PC $end
$var wire 32 < data2_i [31:0] $end
$var wire 32 = data_o [31:0] $end
$var wire 32 > data1_i [31:0] $end
$upscope $end
$scope module Control $end
$var wire 7 ? Op_i [6:0] $end
$var wire 1 ' RegWrite_o $end
$var wire 1 1 ALUSrc_o $end
$var wire 2 @ ALUOp_o [1:0] $end
$upscope $end
$scope module Instruction_Memory $end
$var wire 32 A instr_o [31:0] $end
$var wire 32 B addr_i [31:0] $end
$upscope $end
$scope module MUX_ALUSrc $end
$var wire 1 1 select_i $end
$var wire 32 C data2_i [31:0] $end
$var wire 32 D data1_i [31:0] $end
$var reg 32 E data_o [31:0] $end
$upscope $end
$scope module PC $end
$var wire 1 ! clk_i $end
$var wire 32 F pc_i [31:0] $end
$var wire 1 " rst_i $end
$var wire 1 # start_i $end
$var reg 32 G pc_o [31:0] $end
$upscope $end
$scope module Registers $end
$var wire 5 H RDaddr_i [4:0] $end
$var wire 32 I RDdata_i [31:0] $end
$var wire 5 J RS1addr_i [4:0] $end
$var wire 32 K RS1data_o [31:0] $end
$var wire 5 L RS2addr_i [4:0] $end
$var wire 32 M RS2data_o [31:0] $end
$var wire 1 ' RegWrite_i $end
$var wire 1 ! clk_i $end
$upscope $end
$scope module Sign_Extend $end
$var wire 12 N data_i [11:0] $end
$var wire 32 O data_o [31:0] $end
$upscope $end
$upscope $end
$upscope $end
$enddefinitions $end
#0
$dumpvars
b1010 O
b1010 N
b0 M
b1010 L
b0 K
b0 J
b1010 I
b101 H
b0 G
b100 F
b1010 E
b0 D
b1010 C
b0 B
b101000000000001010010011 A
b11 @
b10011 ?
b0 >
b100 =
b100 <
b10 ;
b11 :
b0 9
b1010 8
b10 7
06
b0 5
b1010 4
b10 3
b11 2
11
b1010 0
b1010 /
b1010 .
b0 -
b0 ,
b101000000000001010010011 +
b0 *
b100 )
z(
1'
b11 &
b100000 %
b0 $
0#
0"
0!
$end
#12
1#
1"
#25
b1101 /
b1101 8
b1101 I
b1101 0
b1101 4
b1101 E
b1101 .
b1101 C
b1101 O
b1101 N
b110 H
b1101 L
b110100000000001100010011 +
b110100000000001100010011 A
b1000 )
b1000 =
b1000 F
b100 *
b100 >
b100 B
b100 G
b1 $
1!
#50
0!
#75
b11 3
b11 7
b11 ;
b1101 0
b1101 4
b1101 E
b10000010 /
b10000010 8
b10000010 I
01
b10 2
b10 :
b10 @
b1000 9
b100110 .
b100110 C
b100110 O
b100110 N
b111 H
b1101 ,
b1101 D
b1101 M
b110 L
b1010 -
b1010 5
b1010 K
b101 J
b110011 ?
b10011000101000001110110011 +
b10011000101000001110110011 A
b1100 )
b1100 =
b1100 F
b1000 *
b1000 >
b1000 B
b1000 G
b10 $
1!
#100
0!
#125
b10101001 /
b10101001 8
b10101001 I
b11100 H
b1101 -
b1101 5
b1101 K
b110 J
b10011000110000111000110011 +
b10011000110000111000110011 A
b10000 )
b10000 =
b10000 F
b1100 *
b1100 >
b1100 B
b1100 G
b11 $
1!
#150
0!
#175
b1100 /
b1100 8
b1100 I
b10 3
b10 7
b10 ;
b11111111111111111111111111111111 0
b11111111111111111111111111111111 4
b11111111111111111111111111111111 E
11
b11 2
b11 :
b11 @
b1111111000 9
b11111111111111111111111111111111 .
b11111111111111111111111111111111 C
b11111111111111111111111111111111 O
b111111111111 N
b110 H
b0 ,
b0 D
b0 M
b11111 L
b10011 ?
b11111111111100110000001100010011 +
b11111111111100110000001100010011 A
b10100 )
b10100 =
b10100 F
b10000 *
b10000 >
b10000 B
b10000 G
b100 $
1!
#200
0!
#225
b11111 0
b11111 4
b11111 E
b11111 /
b11111 8
b11111 I
b0 9
b11111 .
b11111 C
b11111 O
b11111 N
b11110 H
b0 J
b1111100000000111100010011 +
b1111100000000111100010011 A
b11000 )
b11000 =
b11000 F
b10100 *
b10100 >
b10100 B
b10100 G
b0 -
b0 5
b0 K
b101 $
1!
#250
0!
#275
16
b0 3
b0 7
b0 ;
b10000010 0
b10000010 4
b10000010 E
b0 /
b0 8
b0 I
01
b10 2
b10 :
b10 @
b111 9
b111 .
b111 C
b111 O
b111 N
b11100 H
b10000010 ,
b10000010 D
b10000010 M
b111 L
b1100 -
b1100 5
b1100 K
b110 J
b110011 ?
b11100110111111000110011 +
b11100110111111000110011 A
b11100 )
b11100 =
b11100 F
b11000 *
b11000 >
b11000 B
b11000 G
b110 $
1!
#300
0!
#325
06
b10000010 /
b10000010 8
b10000010 I
b111 3
b111 7
b111 ;
b100 9
b11101 H
b0 -
b0 5
b0 K
b11100 J
b11111100100111010110011 +
b11111100100111010110011 A
b100000 )
b100000 =
b100000 F
b11100 *
b11100 >
b11100 B
b11100 G
b111 $
1!
#350
0!
#375
16
b0 /
b0 8
b0 I
b0 0
b0 4
b0 E
b1101 .
b1101 C
b1101 O
b1101 N
b1110 H
b0 ,
b0 D
b0 M
b1101 L
b1010 J
b110101010100011100110011 +
b110101010100011100110011 A
b100100 )
b100100 =
b100100 F
b100000 *
b100000 >
b100000 B
b100000 G
b1000 $
1!
#400
0!
#425
06
b11111111111111111111111101111110 /
b11111111111111111111111101111110 8
b11111111111111111111111101111110 I
b110 3
b110 7
b110 ;
b10000010 0
b10000010 4
b10000010 E
b100000000 9
b10000000111 .
b10000000111 C
b10000000111 O
b10000000111 N
b101 H
b10000010 ,
b10000010 D
b10000010 M
b111 L
b11100 J
b1000000011111100000001010110011 +
b1000000011111100000001010110011 A
b101000 )
b101000 =
b101000 F
b100100 *
b100100 >
b100100 B
b100100 G
b1001 $
1!
#450
0!
#475
b11111111111111111111111111111000 /
b11111111111111111111111111111000 8
b11111111111111111111111111111000 I
b10 3
b10 7
b10 ;
b11111111111111111111111111111000 0
b11111111111111111111111111111000 4
b11111111111111111111111111111000 E
11
b11 2
b11 :
b11 @
b1111111000 9
b11111111111111111111111111111000 .
b11111111111111111111111111111000 C
b11111111111111111111111111111000 O
b111111111000 N
b11111 H
b0 ,
b0 D
b0 M
b11000 L
b11111 J
b10011 ?
b11111111100011111000111110010011 +
b11111111100011111000111110010011 A
b101100 )
b101100 =
b101100 F
b101000 *
b101000 >
b101000 B
b101000 G
b1010 $
1!
#500
0!
#525
b11111111111111111111111111110000 /
b11111111111111111111111111110000 8
b11111111111111111111111111110000 I
b110000 )
b110000 =
b110000 F
b101100 *
b101100 >
b101100 B
b101100 G
b11111111111111111111111111111000 -
b11111111111111111111111111111000 5
b11111111111111111111111111111000 K
b1011 $
1!
#550
0!
#575
b11111111111111111111111111101000 /
b11111111111111111111111111101000 8
b11111111111111111111111111101000 I
b110100 )
b110100 =
b110100 F
b110000 *
b110000 >
b110000 B
b110000 G
b11111111111111111111111111110000 -
b11111111111111111111111111110000 5
b11111111111111111111111111110000 K
b1100 $
1!
#600
0!
#625
b111111 0
b111111 4
b111111 E
b111111 /
b111111 8
b111111 I
b1000 9
b111111 .
b111111 C
b111111 O
b111111 N
b111 H
b11111111111111111111111111101000 ,
b11111111111111111111111111101000 D
b11111111111111111111111111101000 M
b11111 L
b0 J
b11111100000000001110010011 +
b11111100000000001110010011 A
b111000 )
b111000 =
b111000 F
b110100 *
b110100 >
b110100 B
b110100 G
b0 -
b0 5
b0 K
b1101 $
1!
#650
0!
#675
b101 3
b101 7
b101 ;
b10000000010 0
b10000000010 4
b10000000010 E
b1111 /
b1111 8
b1111 I
b100000101 9
b10000000010 .
b10000000010 C
b10000000010 O
b10000000010 N
b0 ,
b0 D
b0 M
b10 L
b111111 -
b111111 5
b111111 K
b111 J
b1000000001000111101001110010011 +
b1000000001000111101001110010011 A
b111100 )
b111100 =
b111100 F
b111000 *
b111000 >
b111000 B
b111000 G
b1110 $
1!
#700
0!
#725
b11 /
b11 8
b11 I
b1000000 )
b1000000 =
b1000000 F
b111100 *
b111100 >
b111100 B
b111100 G
b1111 -
b1111 5
b1111 K
b1111 $
1!
#750
0!
#775
16
b0 /
b0 8
b0 I
b1000100 )
b1000100 =
b1000100 F
b1000000 *
b1000000 >
b1000000 B
b1000000 G
b11 -
b11 5
b11 K
b10000 $
1!
#800
0!
#825
b10000000001 0
b10000000001 4
b10000000001 E
06
b110 /
b110 8
b110 I
b10000000001 .
b10000000001 C
b10000000001 O
b10000000001 N
b110 H
b1 L
b110 J
b1000000000100110101001100010011 +
b1000000000100110101001100010011 A
b1001000 )
b1001000 =
b1001000 F
b1000100 *
b1000100 >
b1000100 B
b1000100 G
b1100 -
b1100 5
b1100 K
b10001 $
1!
#850
0!
#875
b11 /
b11 8
b11 I
b1001100 )
b1001100 =
b1001100 F
b1001000 *
b1001000 >
b1001000 B
b1001000 G
b110 -
b110 5
b110 K
b10010 $
1!
#900
0!
#925
b1 /
b1 8
b1 I
b1010000 )
b1010000 =
b1010000 F
b1001100 *
b1001100 >
b1001100 B
b1001100 G
b11 -
b11 5
b11 K
b10011 $
1!
#950
0!
#975
b100 3
b100 7
b100 ;
b1 0
b1 4
b1 E
06
b11111111111111111111111111010000 /
b11111111111111111111111111010000 8
b11111111111111111111111111010000 I
01
b10 2
b10 :
b10 @
b1 9
b110 .
b110 C
b110 O
b110 N
b11111 H
b1 ,
b1 D
b1 M
b110 L
b11111 J
b110011 ?
b11011111001111110110011 +
b11011111001111110110011 A
b1010100 )
b1010100 =
b1010100 F
b1010000 *
b1010000 >
b1010000 B
b1010000 G
b11111111111111111111111111101000 -
b11111111111111111111111111101000 5
b11111111111111111111111111101000 K
b10100 $
1!
#1000
0!
#1025
b11111111111111111111111110100000 /
b11111111111111111111111110100000 8
b11111111111111111111111110100000 I
b1011000 )
b1011000 =
b1011000 F
b1010100 *
b1010100 >
b1010100 B
b1010100 G
b11111111111111111111111111010000 -
b11111111111111111111111111010000 5
b11111111111111111111111111010000 K
b10101 $
1!
#1050
0!
#1075
b10 3
b10 7
b10 ;
b0 0
b0 4
b0 E
16
b0 /
b0 8
b0 I
b0 9
b0 .
b0 C
b0 O
b0 N
b0 H
b0 ,
b0 D
b0 M
b0 L
b0 J
b0 ?
b0 +
b0 A
b1011100 )
b1011100 =
b1011100 F
b1011000 *
b1011000 >
b1011000 B
b1011000 G
b0 -
b0 5
b0 K
b10110 $
1!
#1100
0!
#1125
b1100000 )
b1100000 =
b1100000 F
b1011100 *
b1011100 >
b1011100 B
b1011100 G
b10111 $
1!
#1150
0!
#1175
b1100100 )
b1100100 =
b1100100 F
b1100000 *
b1100000 >
b1100000 B
b1100000 G
b11000 $
1!
#1200
0!
#1225
b1101000 )
b1101000 =
b1101000 F
b1100100 *
b1100100 >
b1100100 B
b1100100 G
b11001 $
1!
#1250
0!
#1275
b1101100 )
b1101100 =
b1101100 F
b1101000 *
b1101000 >
b1101000 B
b1101000 G
b11010 $
1!
#1300
0!
#1325
b1110000 )
b1110000 =
b1110000 F
b1101100 *
b1101100 >
b1101100 B
b1101100 G
b11011 $
1!
#1350
0!
#1375
b1110100 )
b1110100 =
b1110100 F
b1110000 *
b1110000 >
b1110000 B
b1110000 G
b11100 $
1!
#1400
0!
#1425
b1111000 )
b1111000 =
b1111000 F
b1110100 *
b1110100 >
b1110100 B
b1110100 G
b11101 $
1!
#1450
0!
#1475
b1111100 )
b1111100 =
b1111100 F
b1111000 *
b1111000 >
b1111000 B
b1111000 G
b11110 $
1!
#1500
0!
#1525
b10000000 )
b10000000 =
b10000000 F
b1111100 *
b1111100 >
b1111100 B
b1111100 G
1!
