2022F - Computer Architecture/lab1/codes/CPU.vcd
$date
	Fri Dec 30 16:30:58 2022
$end
$version
	Icarus Verilog
$end
$timescale
	1s
$end
$scope module TestBench $end
$var reg 1 ! Clk $end
$var reg 1 " Reset $end
$var reg 1 # Start $end
$var integer 32 $ counter [31:0] $end
$var integer 32 % flush [31:0] $end
$var integer 32 & i [31:0] $end
$var integer 32 ' outfile [31:0] $end
$var integer 32 ( stall [31:0] $end
$scope module CPU $end
$var wire 1 ! clk_i $end
$var wire 1 " rst_i $end
$var wire 1 # start_i $end
$var wire 32 ) pc_next [31:0] $end
$var wire 32 * pc_default [31:0] $end
$var wire 32 + pc_branch [31:0] $end
$var wire 32 , pc [31:0] $end
$var wire 32 - WB_WRdata [31:0] $end
$var wire 1 . WB_RegWrite $end
$var wire 5 / WB_Rd [4:0] $end
$var wire 1 0 WB_MemtoReg $end
$var wire 32 1 WB_MEMdata [31:0] $end
$var wire 32 2 WB_ALUresult [31:0] $end
$var wire 1 3 Stall $end
$var wire 1 4 PCWrite $end
$var wire 1 5 NoOp $end
$var wire 1 6 MEM_RegWrite $end
$var wire 5 7 MEM_Rd [4:0] $end
$var wire 32 8 MEM_RS2data [31:0] $end
$var wire 1 9 MEM_MemtoReg $end
$var wire 1 : MEM_MemWrite $end
$var wire 1 ; MEM_MemRead $end
$var wire 32 < MEM_MEMdata [31:0] $end
$var wire 32 = MEM_ALUresult [31:0] $end
$var wire 32 > IF_instr [31:0] $end
$var wire 32 ? ID_pc [31:0] $end
$var wire 32 @ ID_instr [31:0] $end
$var wire 1 A ID_RegWrite $end
$var wire 32 B ID_RS2data [31:0] $end
$var wire 32 C ID_RS1data [31:0] $end
$var wire 1 D ID_MemtoReg $end
$var wire 1 E ID_MemWrite $end
$var wire 1 F ID_MemRead $end
$var wire 32 G ID_IMMdata_shift [31:0] $end
$var wire 32 H ID_IMMdata [31:0] $end
$var wire 1 I ID_Branch $end
$var wire 1 J ID_ALUSrc $end
$var wire 2 K ID_ALUOp [1:0] $end
$var wire 2 L ForwardB [1:0] $end
$var wire 2 M ForwardA [1:0] $end
$var wire 1 N Flush $end
$var wire 10 O EX_funct [9:0] $end
$var wire 32 P EX_forward_RS2data [31:0] $end
$var wire 1 Q EX_RegWrite $end
$var wire 5 R EX_Rd [4:0] $end
$var wire 32 S EX_RS2data [31:0] $end
$var wire 5 T EX_RS2addr [4:0] $end
$var wire 32 U EX_RS1data [31:0] $end
$var wire 5 V EX_RS1addr [4:0] $end
$var wire 1 W EX_MemtoReg $end
$var wire 1 X EX_MemWrite $end
$var wire 1 Y EX_MemRead $end
$var wire 32 Z EX_IMMdata [31:0] $end
$var wire 32 [ EX_ALUresult [31:0] $end
$var wire 32 \ EX_ALUdata2 [31:0] $end
$var wire 32 ] EX_ALUdata1 [31:0] $end
$var wire 1 ^ EX_ALUSrc $end
$var wire 2 _ EX_ALUOp [1:0] $end
$var wire 3 ` EX_ALUCtrl [2:0] $end
$scope module ALU $end
$var wire 32 a data2_i [31:0] $end
$var wire 32 b data1_i [31:0] $end
$var wire 3 c ALUCtrl_i [2:0] $end
$var reg 32 d data_o [31:0] $end
$upscope $end
$scope module ALUSrc_MUX $end
$var wire 1 ^ select_i $end
$var wire 32 e data_o [31:0] $end
$var wire 32 f data2_i [31:0] $end
$var wire 32 g data1_i [31:0] $end
$upscope $end
$scope module ALU_Control $end
$var wire 10 h funct_i [9:0] $end
$var wire 2 i ALUOp_i [1:0] $end
$var reg 3 j ALUCtrl_o [2:0] $end
$upscope $end
$scope module Add_Branch_PC $end
$var wire 32 k data_o [31:0] $end
$var wire 32 l data2_i [31:0] $end
$var wire 32 m data1_i [31:0] $end
$upscope $end
$scope module Add_PC $end
$var wire 32 n data2_i [31:0] $end
$var wire 32 o data_o [31:0] $end
$var wire 32 p data1_i [31:0] $end
$upscope $end
$scope module Branch $end
$var wire 1 N result_o $end
$var wire 1 I branch_i $end
$var wire 32 q RS2data_i [31:0] $end
$var wire 32 r RS1data_i [31:0] $end
$upscope $end
$scope module Control $end
$var wire 7 s Op_i [6:0] $end
$var wire 1 5 NoOp_i $end
$var reg 2 t ALUOp_o [1:0] $end
$var reg 1 J ALUSrc_o $end
$var reg 1 I Branch_o $end
$var reg 1 F MemRead_o $end
$var reg 1 E MemWrite_o $end
$var reg 1 D MemtoReg_o $end
$var reg 1 A RegWrite_o $end
$upscope $end
$scope module Data_Memory $end
$var wire 1 ! clk_i $end
$var wire 32 u data_o [31:0] $end
$var wire 32 v data_i [31:0] $end
$var wire 32 w addr_i [31:0] $end
$var wire 1 : MemWrite_i $end
$var wire 1 ; MemRead_i $end
$upscope $end
$scope module EX_MEM $end
$var wire 32 x ALUresult_i [31:0] $end
$var wire 1 ! clk_i $end
$var wire 1 Q RegWrite_i $end
$var wire 5 y Rd_i [4:0] $end
$var wire 32 z RS2data_i [31:0] $end
$var wire 1 W MemtoReg_i $end
$var wire 1 X MemWrite_i $end
$var wire 1 Y MemRead_i $end
$var reg 32 { ALUresult_o [31:0] $end
$var reg 1 ; MemRead_o $end
$var reg 1 : MemWrite_o $end
$var reg 1 9 MemtoReg_o $end
$var reg 32 | RS2data_o [31:0] $end
$var reg 5 } Rd_o [4:0] $end
$var reg 1 6 RegWrite_o $end
$upscope $end
$scope module Forwarding_Unit $end
$var wire 5 ~ MEM_Rd_i [4:0] $end
$var wire 1 6 MEM_RegWrite_i $end
$var wire 1 . WB_RegWrite_i $end
$var wire 5 !" WB_Rd_i [4:0] $end
$var wire 5 "" EX_RS2_i [4:0] $end
$var wire 5 #" EX_RS1_i [4:0] $end
$var reg 2 $" ForwardA_o [1:0] $end
$var reg 2 %" ForwardB_o [1:0] $end
$upscope $end
$scope module Hazard_Detection $end
$var wire 5 &" ID_RS1_i [4:0] $end
$var wire 5 '" ID_RS2_i [4:0] $end
$var wire 5 (" EX_Rd_i [4:0] $end
$var wire 1 Y EX_MemRead_i $end
$var reg 1 5 NoOp_o $end
$var reg 1 4 PCWrite_o $end
$var reg 1 3 stall_o $end
$upscope $end
$scope module ID_EX $end
$var wire 2 )" ALUOp_i [1:0] $end
$var wire 1 J ALUSrc_i $end
$var wire 1 F MemRead_i $end
$var wire 1 E MemWrite_i $end
$var wire 1 D MemtoReg_i $end
$var wire 5 *" RS1addr_i [4:0] $end
$var wire 5 +" RS2addr_i [4:0] $end
$var wire 5 ," Rd_i [4:0] $end
$var wire 1 A RegWrite_i $end
$var wire 1 ! clk_i $end
$var wire 10 -" funct_i [9:0] $end
$var wire 32 ." RS2data_i [31:0] $end
$var wire 32 /" RS1data_i [31:0] $end
$var wire 32 0" IMMdata_i [31:0] $end
$var reg 2 1" ALUOp_o [1:0] $end
$var reg 1 ^ ALUSrc_o $end
$var reg 32 2" IMMdata_o [31:0] $end
$var reg 1 Y MemRead_o $end
$var reg 1 X MemWrite_o $end
$var reg 1 W MemtoReg_o $end
$var reg 5 3" RS1addr_o [4:0] $end
$var reg 32 4" RS1data_o [31:0] $end
$var reg 5 5" RS2addr_o [4:0] $end
$var reg 32 6" RS2data_o [31:0] $end
$var reg 5 7" Rd_o [4:0] $end
$var reg 1 Q RegWrite_o $end
$var reg 10 8" funct_o [9:0] $end
$upscope $end
$scope module IF_ID $end
$var wire 1 ! clk_i $end
$var wire 1 N flush_i $end
$var wire 1 3 stall_i $end
$var wire 1 # start_i $end
$var wire 32 9" pc_i [31:0] $end
$var wire 32 :" instr_i [31:0] $end
$var reg 32 ;" instr_o [31:0] $end
$var reg 32 <" pc_o [31:0] $end
$upscope $end
$scope module Imm_Gen $end
$var wire 32 =" instr_i [31:0] $end
$var reg 32 >" IMMdata_o [31:0] $end
$upscope $end
$scope module Instruction_Memory $end
$var wire 32 ?" instr_o [31:0] $end
$var wire 32 @" addr_i [31:0] $end
$upscope $end
$scope module Left_Shifter $end
$var wire 32 A" data_i [31:0] $end
$var wire 32 B" data_o [31:0] $end
$upscope $end
$scope module MEM_WB $end
$var wire 32 C" ALUresult_i [31:0] $end
$var wire 32 D" MEMdata_i [31:0] $end
$var wire 1 9 MemtoReg_i $end
$var wire 5 E" Rd_i [4:0] $end
$var wire 1 6 RegWrite_i $end
$var wire 1 ! clk_i $end
$var reg 32 F" ALUresult_o [31:0] $end
$var reg 32 G" MEMdata_o [31:0] $end
$var reg 1 0 MemtoReg_o $end
$var reg 5 H" Rd_o [4:0] $end
$var reg 1 . RegWrite_o $end
$upscope $end
$scope module MUX_ALUSrc $end
$var wire 32 I" data1_i [31:0] $end
$var wire 32 J" data2_i [31:0] $end
$var wire 1 0 select_i $end
$var wire 32 K" data_o [31:0] $end
$upscope $end
$scope module PC $end
$var wire 1 4 PCWrite_i $end
$var wire 1 ! clk_i $end
$var wire 1 " rst_i $end
$var wire 1 # start_i $end
$var wire 32 L" pc_i [31:0] $end
$var reg 32 M" pc_o [31:0] $end
$upscope $end
$scope module PC_MUX $end
$var wire 32 N" data1_i [31:0] $end
$var wire 32 O" data2_i [31:0] $end
$var wire 1 N select_i $end
$var wire 32 P" data_o [31:0] $end
$upscope $end
$scope module RS1_MUX $end
$var wire 32 Q" data1_i [31:0] $end
$var wire 32 R" data2_i [31:0] $end
$var wire 32 S" data3_i [31:0] $end
$var wire 32 T" data4_i [31:0] $end
$var wire 2 U" select_i [1:0] $end
$var reg 32 V" data_o [31:0] $end
$upscope $end
$scope module RS2_MUX $end
$var wire 32 W" data1_i [31:0] $end
$var wire 32 X" data2_i [31:0] $end
$var wire 32 Y" data3_i [31:0] $end
$var wire 32 Z" data4_i [31:0] $end
$var wire 2 [" select_i [1:0] $end
$var reg 32 \" data_o [31:0] $end
$upscope $end
$scope module Registers $end
$var wire 5 ]" RDaddr_i [4:0] $end
$var wire 32 ^" RDdata_i [31:0] $end
$var wire 5 _" RS1addr_i [4:0] $end
$var wire 5 `" RS2addr_i [4:0] $end
$var wire 1 . RegWrite_i $end
$var wire 1 ! clk_i $end
$var wire 32 a" RS2data_o [31:0] $end
$var wire 32 b" RS1data_o [31:0] $end
$upscope $end
$upscope $end
$upscope $end
$enddefinitions $end
#0
$dumpvars
b0 b"
b0 a"
b0 `"
b0 _"
b0 ^"
b0 ]"
bx \"
b0 ["
bz Z"
bx Y"
b0 X"
bx W"
bx V"
b0 U"
bz T"
bx S"
b0 R"
bx Q"
b100 P"
bx O"
b100 N"
b0 M"
b100 L"
b0 K"
b0 J"
b0 I"
b0 H"
b0 G"
b0 F"
b0 E"
b0 D"
bx C"
bx0 B"
bx A"
b0 @"
b110000010011 ?"
bx >"
b0 ="
b0 <"
b0 ;"
b110000010011 :"
b0 9"
b0 8"
b0 7"
bx 6"
b0 5"
bx 4"
b0 3"
bx 2"
b0 1"
bx 0"
b0 /"
b0 ."
b0 -"
b0 ,"
b0 +"
b0 *"
b0 )"
b0 ("
b0 '"
b0 &"
b0 %"
b0 $"
b0 #"
b0 ""
b0 !"
b0 ~
b0 }
bx |
bx {
bx z
b0 y
bx x
bx w
bx v
b0 u
b0 t
b0 s
b0 r
b0 q
b0 p
b100 o
b100 n
bx0 m
b0 l
bx k
b10 j
b0 i
b0 h
bx g
bx f
bx e
bx d
b10 c
bx b
bx a
b10 `
b0 _
0^
bx ]
bx \
bx [
bx Z
0Y
0X
0W
b0 V
bx U
b0 T
bx S
b0 R
0Q
bx P
b0 O
0N
b0 M
b0 L
b0 K
0J
0I
bx H
bx0 G
0F
0E
0D
b0 C
b0 B
0A
b0 @
b0 ?
b110000010011 >
bx =
b0 <
0;
0:
09
bx 8
b0 7
06
05
14
03
b0 2
b0 1
00
b0 /
0.
b0 -
b0 ,
bx +
b100 *
b100 )
b0 (
b11 '
b100000 &
b0 %
b0 $
0#
1"
1!
$end
#12
1#
0"
#25
0!
#50
b0 [
b0 d
b0 x
b0 \
b0 a
b0 e
b0 +
b0 k
b0 O"
b0 G
b0 m
b0 B"
1A
1J
b11 K
b11 t
b11 )"
bx -
bx K"
bx R"
bx X"
bx ^"
b0 P
b0 g
b0 z
b0 \"
b0 ]
b0 b
b0 V"
b0 H
b0 0"
b0 >"
b0 A"
b11000 ,"
b10011 s
b10000000000110100010011 >
b10000000000110100010011 :"
b10000000000110100010011 ?"
b1000 )
b1000 L"
b1000 P"
bx 2
bx F"
bx I"
b0 S
b0 6"
b0 W"
b0 U
b0 4"
b0 Q"
b110000010011 @
b110000010011 ;"
b110000010011 ="
b1000 *
b1000 o
b1000 N"
b100 ,
b100 p
b100 9"
b100 @"
b100 M"
b1 $
1!
#75
0!
#100
b1000 G
b1000 m
b1000 B"
b100 H
b100 0"
b100 >"
b100 A"
b11010 ,"
b100 +"
b100 `"
b100 '"
b10000000000111000010011 >
b10000000000111000010011 :"
b10000000000111000010011 ?"
b1100 )
b1100 L"
b1100 P"
b1100 +
b1100 k
b1100 O"
b100 ?
b100 l
b100 <"
b10000000000110100010011 @
b10000000000110100010011 ;"
b10000000000110100010011 ="
b11000 R
b11000 y
b11000 ("
b11000 7"
b0 Z
b0 f
b0 2"
1^
b11 _
b11 i
b11 1"
1Q
b0 8
b0 v
b0 |
b0 =
b0 w
b0 {
b0 C"
b0 S"
b0 Y"
b1100 *
b1100 o
b1100 N"
b1000 ,
b1000 p
b1000 9"
b1000 @"
b1000 M"
b10 $
1!
#125
0!
#150
b100 [
b100 d
b100 x
b0 -
b0 K"
b0 R"
b0 X"
b0 ^"
b100 \
b100 a
b100 e
b11100 ,"
b11111111111100000000011110010011 >
b11111111111100000000011110010011 :"
b11111111111100000000011110010011 ?"
b10000 )
b10000 L"
b10000 P"
b0 2
b0 F"
b0 I"
b11000 7
b11000 }
b11000 ~
b11000 E"
16
b11010 R
b11010 y
b11010 ("
b11010 7"
b100 T
b100 ""
b100 5"
b100 Z
b100 f
b100 2"
b10000 +
b10000 k
b10000 O"
b1000 ?
b1000 l
b1000 <"
b10000000000111000010011 @
b10000000000111000010011 ;"
b10000000000111000010011 ="
b10000 *
b10000 o
b10000 N"
b1100 ,
b1100 p
b1100 9"
b1100 @"
b1100 M"
b11 $
1!
#175
0!
#200
b11111111111111111111111111111110 G
b11111111111111111111111111111110 m
b11111111111111111111111111111110 B"
b111110 B
b111110 q
b111110 ."
b111110 a"
b11111111111111111111111111111111 H
b11111111111111111111111111111111 0"
b11111111111111111111111111111111 >"
b11111111111111111111111111111111 A"
b1111 ,"
b11111 +"
b1111111000 -"
b11111 `"
b11111 '"
b11110011010000110010110011 >
b11110011010000110010110011 :"
b11110011010000110010110011 ?"
b10100 )
b10100 L"
b10100 P"
b1010 +
b1010 k
b1010 O"
b1100 ?
b1100 l
b1100 <"
b11111111111100000000011110010011 @
b11111111111100000000011110010011 ;"
b11111111111100000000011110010011 ="
b11100 R
b11100 y
b11100 ("
b11100 7"
b11010 7
b11010 }
b11010 ~
b11010 E"
b100 =
b100 w
b100 {
b100 C"
b100 S"
b100 Y"
b11000 /
b11000 !"
b11000 H"
b11000 ]"
1.
b10100 *
b10100 o
b10100 N"
b10000 ,
b10000 p
b10000 9"
b10000 @"
b10000 M"
b100 $
1!
#225
0!
#250
b11111111111111111111111111111111 [
b11111111111111111111111111111111 d
b11111111111111111111111111111111 x
b111000 B
b111000 q
b111000 ."
b111000 a"
b100 C
b100 r
b100 /"
b100 b"
0J
b10 K
b10 t
b10 )"
b100 -
b100 K"
b100 R"
b100 X"
b100 ^"
b11111111111111111111111111111111 \
b11111111111111111111111111111111 a
b11111111111111111111111111111111 e
b111110 P
b111110 g
b111110 z
b111110 \"
b11001 ,"
b11100 +"
b11010 *"
b1000 -"
b11100 `"
b11010 _"
b110011 s
b11100 '"
b11010 &"
b11111111111111010000110100010011 >
b11111111111111010000110100010011 :"
b11111111111111010000110100010011 ?"
b11000 )
b11000 L"
b11000 P"
b11010 /
b11010 !"
b11010 H"
b11010 ]"
b100 2
b100 F"
b100 I"
b11100 7
b11100 }
b11100 ~
b11100 E"
b1111 R
b1111 y
b1111 ("
b1111 7"
b11111 T
b11111 ""
b11111 5"
b1111111000 O
b1111111000 h
b1111111000 8"
b11111111111111111111111111111111 Z
b11111111111111111111111111111111 f
b11111111111111111111111111111111 2"
b111110 S
b111110 6"
b111110 W"
b1110 +
b1110 k
b1110 O"
b10000 ?
b10000 l
b10000 <"
b11110011010000110010110011 @
b11110011010000110010110011 ;"
b11110011010000110010110011 ="
b11000 *
b11000 o
b11000 N"
b10100 ,
b10100 p
b10100 9"
b10100 @"
b10100 M"
b101 $
1!
#275
0!
#300
b10000 [
b10000 d
b10000 x
b11 `
b11 c
b11 j
1J
b11 K
b11 t
b11 )"
b111110 B
b111110 q
b111110 ."
b111110 a"
b11010 ,"
b11111 +"
b1111111000 -"
b11111 `"
b10011 s
b11111 '"
b100 \
b100 a
b100 e
b100 ]
b100 b
b100 V"
b100 P
b100 g
b100 z
b100 \"
b1 L
b1 %"
b1 ["
b11001010110110000011 >
b11001010110110000011 :"
b11001010110110000011 ?"
b11100 )
b11100 L"
b11100 P"
b10010 +
b10010 k
b10010 O"
b10100 ?
b10100 l
b10100 <"
b11111111111111010000110100010011 @
b11111111111111010000110100010011 ;"
b11111111111111010000110100010011 ="
b11001 R
b11001 y
b11001 ("
b11001 7"
b11100 T
b11100 ""
b11100 5"
b11010 V
b11010 #"
b11010 3"
b1000 O
b1000 h
b1000 8"
b111000 S
b111000 6"
b111000 W"
b100 U
b100 4"
b100 Q"
0^
b10 _
b10 i
b10 1"
b1111 7
b1111 }
b1111 ~
b1111 E"
b111110 8
b111110 v
b111110 |
b11111111111111111111111111111111 =
b11111111111111111111111111111111 w
b11111111111111111111111111111111 {
b11111111111111111111111111111111 C"
b11111111111111111111111111111111 S"
b11111111111111111111111111111111 Y"
b11100 /
b11100 !"
b11100 H"
b11100 ]"
b11100 *
b11100 o
b11100 N"
b11000 ,
b11000 p
b11000 9"
b11000 @"
b11000 M"
b110 $
1!
#325
0!
#350
b11 [
b11 d
b11 x
b10 `
b10 c
b10 j
b111110 P
b111110 g
b111110 z
b111110 \"
b0 G
b0 m
b0 B"
b0 B
b0 q
b0 ."
b0 a"
b11111111111111111111111111100111 C
b11111111111111111111111111100111 r
b11111111111111111111111111100111 /"
b11111111111111111111111111100111 b"
1F
1D
b0 K
b0 t
b0 )"
b11111111111111111111111111111111 -
b11111111111111111111111111111111 K"
b11111111111111111111111111111111 R"
b11111111111111111111111111111111 X"
b11111111111111111111111111111111 ^"
b0 L
b0 %"
b0 ["
b11111111111111111111111111111111 \
b11111111111111111111111111111111 a
b11111111111111111111111111111111 e
b0 H
b0 0"
b0 >"
b0 A"
b11011 ,"
b0 +"
b11001 *"
b10 -"
b0 `"
b11001 _"
b11 s
b0 '"
b11001 &"
b1101111000000110000110011 >
b1101111000000110000110011 :"
b1101111000000110000110011 ?"
b100000 )
b100000 L"
b100000 P"
b1111 /
b1111 !"
b1111 H"
b1111 ]"
b11111111111111111111111111111111 2
b11111111111111111111111111111111 F"
b11111111111111111111111111111111 I"
b11001 7
b11001 }
b11001 ~
b11001 E"
b100 8
b100 v
b100 |
b10000 =
b10000 w
b10000 {
b10000 C"
b10000 S"
b10000 Y"
b11010 R
b11010 y
b11010 ("
b11010 7"
b11111 T
b11111 ""
b11111 5"
b1111111000 O
b1111111000 h
b1111111000 8"
b111110 S
b111110 6"
b111110 W"
1^
b11 _
b11 i
b11 1"
b11000 +
b11000 k
b11000 O"
b11000 ?
b11000 l
b11000 <"
b11001010110110000011 @
b11001010110110000011 ;"
b11001010110110000011 ="
b100000 *
b100000 o
b100000 N"
b11100 ,
b11100 p
b11100 9"
b11100 @"
b11100 M"
b111 $
1!
#375
0!
#400
b10000 [
b10000 d
b10000 x
b11111111111111111111111111100101 B
b11111111111111111111111111100101 q
b11111111111111111111111111100101 ."
b11111111111111111111111111100101 a"
0F
0D
0A
0J
15
04
13
b0 C
b0 r
b0 /"
b0 b"
b11000 ,"
b11011 +"
b11000 *"
b0 -"
b11011 `"
b11000 _"
b110011 s
b11011 '"
b11000 &"
b0 \
b0 a
b0 e
b10000 ]
b10000 b
b10000 V"
b0 P
b0 g
b0 z
b0 \"
b1 M
b1 $"
b1 U"
b10000 -
b10000 K"
b10000 R"
b10000 X"
b10000 ^"
b111111010000010001100011 >
b111111010000010001100011 :"
b111111010000010001100011 ?"
b100100 )
b100100 L"
b100100 P"
b11100 +
b11100 k
b11100 O"
b11100 ?
b11100 l
b11100 <"
b1101111000000110000110011 @
b1101111000000110000110011 ;"
b1101111000000110000110011 ="
b11011 R
b11011 y
b11011 ("
b11011 7"
b0 T
b0 ""
b0 5"
b11001 V
b11001 #"
b11001 3"
b10 O
b10 h
b10 8"
b0 Z
b0 f
b0 2"
b0 S
b0 6"
b0 W"
b11111111111111111111111111100111 U
b11111111111111111111111111100111 4"
b11111111111111111111111111100111 Q"
b0 _
b0 i
b0 1"
1Y
1W
b11010 7
b11010 }
b11010 ~
b11010 E"
b111110 8
b111110 v
b111110 |
b11 =
b11 w
b11 {
b11 C"
b11 S"
b11 Y"
b11001 /
b11001 !"
b11001 H"
b11001 ]"
b10000 2
b10000 F"
b10000 I"
b100100 *
b100100 o
b100100 N"
b100000 ,
b100000 p
b100000 9"
b100000 @"
b100000 M"
b1000 $
1!
#425
0!
#450
b10000 [
b10000 d
b10000 x
b0 ]
b0 b
b0 V"
b10000 \
b10000 a
b10000 e
1A
b10 K
b10 t
b10 )"
b11 -
b11 K"
b11 R"
b11 X"
b11 ^"
b11101 <
b11101 u
b11101 D"
b10 L
b10 %"
b10 ["
b0 M
b0 $"
b0 U"
b10000 P
b10000 g
b10000 z
b10000 \"
05
14
03
b11010 /
b11010 !"
b11010 H"
b11010 ]"
b11 2
b11 F"
b11 I"
b11011 7
b11011 }
b11011 ~
b11011 E"
b0 8
b0 v
b0 |
b10000 =
b10000 w
b10000 {
b10000 C"
b10000 S"
b10000 Y"
1;
19
b11000 R
b11000 y
b11000 ("
b11000 7"
b11011 T
b11011 ""
b11011 5"
b11000 V
b11000 #"
b11000 3"
b0 O
b0 h
b0 8"
b11111111111111111111111111100101 S
b11111111111111111111111111100101 6"
b11111111111111111111111111100101 W"
b0 U
b0 4"
b0 Q"
0^
0Y
0W
0Q
b1001 $
b1 (
1!
#475
0!
#500
b11101 [
b11101 d
b11101 x
b11101 \
b11101 a
b11101 e
b1000 G
b1000 m
b1000 B"
b11 C
b11 r
b11 /"
b11 b"
1I
0A
b1 K
b1 t
b1 )"
b11111111111111111111111111111111 B
b11111111111111111111111111111111 q
b11111111111111111111111111111111 ."
b11111111111111111111111111111111 a"
b11101 P
b11101 g
b11101 z
b11101 \"
b100 H
b100 0"
b100 >"
b100 A"
b1000 ,"
b1111 +"
b11010 *"
b1111 `"
b11010 _"
b1100011 s
b1111 '"
b11010 &"
b0 <
b0 u
b0 D"
b1 L
b1 %"
b1 ["
b11101 -
b11101 K"
b11101 R"
b11101 X"
b11101 ^"
b11111110000000000000011011100011 >
b11111110000000000000011011100011 :"
b11111110000000000000011011100011 ?"
b101000 )
b101000 L"
b101000 P"
b101000 +
b101000 k
b101000 O"
b100000 ?
b100000 l
b100000 <"
b111111010000010001100011 @
b111111010000010001100011 ;"
b111111010000010001100011 ="
b10 _
b10 i
b10 1"
1Q
b11000 7
b11000 }
b11000 ~
b11000 E"
b10000 8
b10000 v
b10000 |
0;
09
06
b11011 /
b11011 !"
b11011 H"
b11011 ]"
b11101 1
b11101 G"
b11101 J"
b10000 2
b10000 F"
b10000 I"
10
b101000 *
b101000 o
b101000 N"
b100100 ,
b100100 p
b100100 9"
b100100 @"
b100100 M"
b1010 $
1!
#525
0!
#550
b100 [
b100 d
b100 x
b110 `
b110 c
b110 j
1N
b11111111111111111111111111111111 \
b11111111111111111111111111111111 a
b11111111111111111111111111111111 e
b11111111111111111111111111111111 P
b11111111111111111111111111111111 g
b11111111111111111111111111111111 z
b11111111111111111111111111111111 \"
b11111111111111111111111111101100 G
b11111111111111111111111111101100 m
b11111111111111111111111111101100 B"
b0 B
b0 q
b0 ."
b0 a"
b0 C
b0 r
b0 /"
b0 b"
b10000 -
b10000 K"
b10000 R"
b10000 X"
b10000 ^"
b0 L
b0 %"
b0 ["
b11 ]
b11 b
b11 V"
b11111111111111111111111111110110 H
b11111111111111111111111111110110 0"
b11111111111111111111111111110110 >"
b11111111111111111111111111110110 A"
b1101 ,"
b0 +"
b0 *"
b1111111000 -"
b0 `"
b0 _"
b0 '"
b0 &"
b1100000000010111000100011 >
b1100000000010111000100011 :"
b1100000000010111000100011 ?"
b10000 )
b10000 L"
b10000 P"
b11000 /
b11000 !"
b11000 H"
b11000 ]"
b0 1
b0 G"
b0 J"
00
0.
b11101 8
b11101 v
b11101 |
b11101 =
b11101 w
b11101 {
b11101 C"
b11101 S"
b11101 Y"
16
b1000 R
b1000 y
b1000 ("
b1000 7"
b1111 T
b1111 ""
b1111 5"
b11010 V
b11010 #"
b11010 3"
b100 Z
b100 f
b100 2"
b11111111111111111111111111111111 S
b11111111111111111111111111111111 6"
b11111111111111111111111111111111 W"
b11 U
b11 4"
b11 Q"
b1 _
b1 i
b1 1"
0Q
b10000 +
b10000 k
b10000 O"
b100100 ?
b100100 l
b100100 <"
b11111110000000000000011011100011 @
b11111110000000000000011011100011 ;"
b11111110000000000000011011100011 ="
b101100 *
b101100 o
b101100 N"
b101000 ,
b101000 p
b101000 9"
b101000 @"
b101000 M"
b1011 $
1!
#575
0!
#600
b0 [
b0 d
b0 x
0N
0I
b0 K
b0 t
b0 )"
b0 \
b0 a
b0 e
b10100 )
b10100 L"
b10100 P"
b0 ,"
b0 -"
b0 s
b0 ]
b0 b
b0 V"
b0 P
b0 g
b0 z
b0 \"
b11101 -
b11101 K"
b11101 R"
b11101 X"
b11101 ^"
b11110011010000110010110011 >
b11110011010000110010110011 :"
b11110011010000110010110011 ?"
b11111111111111111111111111101100 +
b11111111111111111111111111101100 k
b11111111111111111111111111101100 O"
b0 ?
b0 l
b0 <"
b0 @
b0 ;"
b0 ="
b1101 R
b1101 y
b1101 ("
b1101 7"
b0 T
b0 ""
b0 5"
b0 V
b0 #"
b0 3"
b1111111000 O
b1111111000 h
b1111111000 8"
b11111111111111111111111111110110 Z
b11111111111111111111111111110110 f
b11111111111111111111111111110110 2"
b0 S
b0 6"
b0 W"
b0 U
b0 4"
b0 Q"
b1000 7
b1000 }
b1000 ~
b1000 E"
b11111111111111111111111111111111 8
b11111111111111111111111111111111 v
b11111111111111111111111111111111 |
b100 =
b100 w
b100 {
b100 C"
b100 S"
b100 Y"
06
b11101 2
b11101 F"
b11101 I"
1.
b10100 *
b10100 o
b10100 N"
b10000 ,
b10000 p
b10000 9"
b10000 @"
b10000 M"
b1100 $
b1 %
1!
#625
0!
#650
b10 `
b10 c
b10 j
b100 B
b100 q
b100 ."
b100 a"
b11 C
b11 r
b11 /"
b11 b"
1A
b10 K
b10 t
b10 )"
b100 -
b100 K"
b100 R"
b100 X"
b100 ^"
b11001 ,"
b11100 +"
b11010 *"
b1000 -"
b11100 `"
b11010 _"
b110011 s
b11100 '"
b11010 &"
b11111111111111010000110100010011 >
b11111111111111010000110100010011 :"
b11111111111111010000110100010011 ?"
b11000 )
b11000 L"
b11000 P"
b1000 /
b1000 !"
b1000 H"
b1000 ]"
b100 2
b100 F"
b100 I"
0.
b1101 7
b1101 }
b1101 ~
b1101 E"
b0 8
b0 v
b0 |
b0 =
b0 w
b0 {
b0 C"
b0 S"
b0 Y"
b0 R
b0 y
b0 ("
b0 7"
b0 O
b0 h
b0 8"
b0 _
b0 i
b0 1"
b11111111111111111111111111111100 +
b11111111111111111111111111111100 k
b11111111111111111111111111111100 O"
b10000 ?
b10000 l
b10000 <"
b11110011010000110010110011 @
b11110011010000110010110011 ;"
b11110011010000110010110011 ="
b11000 *
b11000 o
b11000 N"
b10100 ,
b10100 p
b10100 9"
b10100 @"
b10100 M"
b1101 $
1!
#675
0!
#700
b1100 [
b1100 d
b1100 x
b11 `
b11 c
b11 j
b11111111111111111111111111111110 G
b11111111111111111111111111111110 m
b11111111111111111111111111111110 B"
b111110 B
b111110 q
b111110 ."
b111110 a"
1J
b11 K
b11 t
b11 )"
b100 \
b100 a
b100 e
b11111111111111111111111111111111 H
b11111111111111111111111111111111 0"
b11111111111111111111111111111111 >"
b11111111111111111111111111111111 A"
b11010 ,"
b11111 +"
b1111111000 -"
b11111 `"
b10011 s
b11111 '"
b100 P
b100 g
b100 z
b100 \"
b11 ]
b11 b
b11 V"
b0 -
b0 K"
b0 R"
b0 X"
b0 ^"
b11001010110110000011 >
b11001010110110000011 :"
b11001010110110000011 ?"
b11100 )
b11100 L"
b11100 P"
b10010 +
b10010 k
b10010 O"
b10100 ?
b10100 l
b10100 <"
b11111111111111010000110100010011 @
b11111111111111010000110100010011 ;"
b11111111111111010000110100010011 ="
b11001 R
b11001 y
b11001 ("
b11001 7"
b11100 T
b11100 ""
b11100 5"
b11010 V
b11010 #"
b11010 3"
b1000 O
b1000 h
b1000 8"
b100 S
b100 6"
b100 W"
b11 U
b11 4"
b11 Q"
b10 _
b10 i
b10 1"
1Q
b0 7
b0 }
b0 ~
b0 E"
b1101 /
b1101 !"
b1101 H"
b1101 ]"
b0 2
b0 F"
b0 I"
b11100 *
b11100 o
b11100 N"
b11000 ,
b11000 p
b11000 9"
b11000 @"
b11000 M"
b1110 $
1!
#725
0!
